

PASS The referrer URL is omitted when a
                                 document served over http requires an http
                                 sub-resource via iframe-tag using the attr-referrer
                                 delivery method with swap-origin-redirect and when
                                 the target request is same-origin. 

