Scrolling content
Stacking
Scrolling content
Containing
Scrolling content
Containing
Stacking
Scrolling content
Scrolling content
Stacking
Containing
Scrolling content
Containing
Stacking

(Frame scrolling node
  (scrollable area size 785 600)
  (contents size 785 829)
  (parent relative scrollable rect at (0,0) size 800x600)
  (scrollable area parameters 
    (horizontal scroll elasticity 2)
    (vertical scroll elasticity 2)
    (horizontal scrollbar mode 0)
    (vertical scrollbar mode 0)
    (has enabled vertical scrollbar 1))
  (layout viewport at (0,0) size 785x600)
  (min layout viewport origin (0,0))
  (max layout viewport origin (0,229))
  (behavior for fixed 0)
  (children 19
    (Overflow scrolling node
      (scrollable area size 205 155)
      (contents size 210 1020)
      (parent relative scrollable rect at (302,579) size 205x155)
      (scrollable area parameters 
        (horizontal scroll elasticity 0)
        (vertical scroll elasticity 0)
        (horizontal scrollbar mode 0)
        (vertical scrollbar mode 0)
        (has enabled horizontal scrollbar 1)
        (has enabled vertical scrollbar 1))
    )
    (Positioned node
      (layout constraints 
        (layer-position-at-last-layout (20,38))
        (positioning-behavior moves))
      (related overflow nodes 1)
    )
    (Positioned node
      (layout constraints 
        (layer-position-at-last-layout (10,58))
        (positioning-behavior moves))
      (related overflow nodes 1)
    )
    (Positioned node
      (layout constraints 
        (layer-position-at-last-layout (10,76))
        (positioning-behavior moves))
      (related overflow nodes 1)
    )
    (Overflow scrolling node
      (scrollable area size 205 155)
      (contents size 210 1020)
      (parent relative scrollable rect at (30,579) size 205x155)
      (scrollable area parameters 
        (horizontal scroll elasticity 0)
        (vertical scroll elasticity 0)
        (horizontal scrollbar mode 0)
        (vertical scrollbar mode 0)
        (has enabled horizontal scrollbar 1)
        (has enabled vertical scrollbar 1))
    )
    (Positioned node
      (layout constraints 
        (layer-position-at-last-layout (20,38))
        (positioning-behavior moves))
      (related overflow nodes 1)
    )
    (Positioned node
      (layout constraints 
        (layer-position-at-last-layout (10,58))
        (positioning-behavior moves))
      (related overflow nodes 1)
    )
    (Overflow scrolling node
      (scrollable area size 205 155)
      (contents size 205 1020)
      (parent relative scrollable rect at (302,343) size 205x155)
      (scrollable area parameters 
        (horizontal scroll elasticity 0)
        (vertical scroll elasticity 0)
        (horizontal scrollbar mode 0)
        (vertical scrollbar mode 0)
        (has enabled vertical scrollbar 1))
    )
    (Positioned node
      (layout constraints 
        (layer-position-at-last-layout (20,38))
        (positioning-behavior moves))
      (related overflow nodes 1)
    )
    (Overflow scrolling node
      (scrollable area size 205 155)
      (contents size 205 1020)
      (parent relative scrollable rect at (30,307) size 205x155)
      (scrollable area parameters 
        (horizontal scroll elasticity 0)
        (vertical scroll elasticity 0)
        (horizontal scrollbar mode 0)
        (vertical scrollbar mode 0)
        (has enabled vertical scrollbar 1))
    )
    (Positioned node
      (layout constraints 
        (layer-position-at-last-layout (20,38))
        (positioning-behavior moves))
      (related overflow nodes 1)
    )
    (Overflow scrolling node
      (scrollable area size 205 155)
      (contents size 210 1020)
      (parent relative scrollable rect at (302,35) size 205x155)
      (scrollable area parameters 
        (horizontal scroll elasticity 0)
        (vertical scroll elasticity 0)
        (horizontal scrollbar mode 0)
        (vertical scrollbar mode 0)
        (has enabled horizontal scrollbar 1)
        (has enabled vertical scrollbar 1))
    )
    (Positioned node
      (layout constraints 
        (layer-position-at-last-layout (20,38))
        (positioning-behavior moves))
      (related overflow nodes 1)
    )
    (Positioned node
      (layout constraints 
        (layer-position-at-last-layout (10,58))
        (positioning-behavior moves))
      (related overflow nodes 1)
    )
    (Positioned node
      (layout constraints 
        (layer-position-at-last-layout (20,86))
        (positioning-behavior moves))
      (related overflow nodes 1)
    )
    (Positioned node
      (layout constraints 
        (layer-position-at-last-layout (110,106))
        (positioning-behavior moves))
      (related overflow nodes 1)
    )
    (Overflow scrolling node
      (scrollable area size 205 155)
      (contents size 205 1020)
      (parent relative scrollable rect at (30,35) size 205x155)
      (scrollable area parameters 
        (horizontal scroll elasticity 0)
        (vertical scroll elasticity 0)
        (horizontal scrollbar mode 0)
        (vertical scrollbar mode 0)
        (has enabled vertical scrollbar 1))
    )
    (Positioned node
      (layout constraints 
        (layer-position-at-last-layout (20,38))
        (positioning-behavior moves))
      (related overflow nodes 1)
    )
    (Positioned node
      (layout constraints 
        (layer-position-at-last-layout (10,58))
        (positioning-behavior moves))
      (related overflow nodes 1)
      (children 1
        (Positioned node
          (layout constraints 
            (layer-position-at-last-layout (79,48))
            (positioning-behavior stationary))
          (related overflow nodes 1)
        )
      )
    )
  )
)


