Scrolling content
Scrolling content
Scrolling content
Scrolling content
Scrolling content

(Frame scrolling node
  (scrollable area size 785 600)
  (contents size 785 741)
  (parent relative scrollable rect at (0,0) size 800x600)
  (scrollable area parameters 
    (horizontal scroll elasticity 2)
    (vertical scroll elasticity 2)
    (horizontal scrollbar mode 0)
    (vertical scrollbar mode 0)
    (has enabled vertical scrollbar 1))
  (layout viewport at (0,0) size 785x600)
  (min layout viewport origin (0,0))
  (max layout viewport origin (0,141))
  (behavior for fixed 0)
  (children 5
    (Overflow scrolling node
      (scrollable area size 205 155)
      (contents size 205 1020)
      (parent relative scrollable rect at (19,11) size 205x155)
      (scrollable area parameters 
        (horizontal scroll elasticity 0)
        (vertical scroll elasticity 0)
        (horizontal scrollbar mode 0)
        (vertical scrollbar mode 0)
        (has enabled vertical scrollbar 1))
    )
    (Overflow scrolling node
      (scrollable area size 205 155)
      (contents size 242 1020)
      (parent relative scrollable rect at (19,193) size 205x155)
      (scrollable area parameters 
        (horizontal scroll elasticity 0)
        (vertical scroll elasticity 0)
        (horizontal scrollbar mode 0)
        (vertical scrollbar mode 0)
        (has enabled horizontal scrollbar 1)
        (has enabled vertical scrollbar 1))
      (children 1
        (Overflow scrolling node
          (scrollable area size 205 155)
          (contents size 205 1020)
          (parent relative scrollable rect at (22,40) size 205x155)
          (scrollable area parameters 
            (horizontal scroll elasticity 0)
            (vertical scroll elasticity 0)
            (horizontal scrollbar mode 0)
            (vertical scrollbar mode 0)
            (has enabled vertical scrollbar 1))
        )
      )
    )
    (Positioned node
      (layout constraints 
        (layer-position-at-last-layout (10,28))
        (positioning-behavior moves))
      (related overflow nodes 1)
    )
    (Overflow scrolling node
      (scrollable area size 205 155)
      (contents size 205 1020)
      (parent relative scrollable rect at (19,375) size 205x155)
      (scrollable area parameters 
        (horizontal scroll elasticity 0)
        (vertical scroll elasticity 0)
        (horizontal scrollbar mode 0)
        (vertical scrollbar mode 0)
        (has enabled vertical scrollbar 1))
    )
    (Overflow scrolling node
      (scrollable area size 205 155)
      (contents size 205 1020)
      (parent relative scrollable rect at (19,557) size 205x155)
      (scrollable area parameters 
        (horizontal scroll elasticity 0)
        (vertical scroll elasticity 0)
        (horizontal scrollbar mode 0)
        (vertical scrollbar mode 0)
        (has enabled vertical scrollbar 1))
      (children 1
        (Positioned node
          (layout constraints 
            (layer-position-at-last-layout (81,28))
            (positioning-behavior stationary))
          (related overflow nodes 1)
        )
      )
    )
  )
)


