The tests in this directory were imported from the W3C repository.
Do NOT modify these tests directly in WebKit.
Instead, create a pull request on the WPT github:
	https://github.com/w3c/web-platform-tests

Then run the Tools/Scripts/import-w3c-tests in WebKit to reimport

Do NOT modify or remove this file.

------------------------------------------------------------------------
Properties requiring vendor prefixes:
None
Property values requiring vendor prefixes:
None
------------------------------------------------------------------------
List of files:
/LayoutTests/imported/w3c/web-platform-tests/html/semantics/document-metadata/the-link-element/resources/bad.css
/LayoutTests/imported/w3c/web-platform-tests/html/semantics/document-metadata/the-link-element/resources/empty-href.css
/LayoutTests/imported/w3c/web-platform-tests/html/semantics/document-metadata/the-link-element/resources/good.css
/LayoutTests/imported/w3c/web-platform-tests/html/semantics/document-metadata/the-link-element/resources/stylesheet.css
